(footprint "Converter_ACDC_RECOM_RAC04-xxSGx_THT" (version 20211014) (generator pcbnew)
  (layer "F.Cu")
  (tedit 5BA95E5A)
  (descr "https://www.recom-power.com/pdf/Powerline-AC-DC/RAC04-GA.pdf")
  (tags "recom power ac dc")
  (attr through_hole)
  (fp_text reference "REF**" (at -0.01 -4.39 180) (layer "F.SilkS")
    (effects (font (size 1 1) (thickness 0.15)))
    (tstamp 44990cfd-9212-4ac0-aaf5-42263761b55a)
  )
  (fp_text value "Converter_ACDC_RECOM_RAC04-xxSGx_THT" (at 15 15 270) (layer "F.Fab")
    (effects (font (size 1 1) (thickness 0.15)))
    (tstamp 672f1adc-50ed-48d7-8bd8-a513e5edcc66)
  )
  (fp_text user "KEEP-OUT ZONE" (at -4.26 30.48 90) (layer "Cmts.User")
    (effects (font (size 0.75 0.75) (thickness 0.15)))
    (tstamp 20a4a07b-099f-45be-a2ff-5213ce5d5525)
  )
  (fp_text user "${REFERENCE}" (at 9 15 90) (layer "F.Fab")
    (effects (font (size 2 2) (thickness 0.2)))
    (tstamp ae0a2381-fe1b-4550-b46a-c6f1e262cef9)
  )
  (fp_line (start 21.02 -3.39) (end 21.02 33.87) (layer "F.SilkS") (width 0.12) (tstamp 14e84b7c-1df1-48f5-8bff-1ae78bc5f43d))
  (fp_line (start -3.24 33.87) (end 21.02 33.87) (layer "F.SilkS") (width 0.12) (tstamp 513b77dc-97d6-4364-90ee-8668775fd56e))
  (fp_line (start -3.24 33.87) (end -3.25 -3.39) (layer "F.SilkS") (width 0.12) (tstamp b0595427-4aa0-4385-8262-e754bce9ed35))
  (fp_line (start -3.24 -3.39) (end 21.02 -3.39) (layer "F.SilkS") (width 0.12) (tstamp c7b36c14-2489-40ed-b9fe-9bf1f98e7377))
  (fp_line (start -3.5 1) (end -3.5 -1) (layer "F.SilkS") (width 0.12) (tstamp eb00285b-5120-4e39-ac5a-1febd23e1bb9))
  (fp_line (start -5.08 25.4) (end 5.08 25.4) (layer "Dwgs.User") (width 0.05) (tstamp 0fba513a-514b-4397-9510-73ac13ace9fb))
  (fp_line (start -5.08 34.29) (end -3.81 35.56) (layer "Dwgs.User") (width 0.05) (tstamp 138d0464-5b24-47fe-8d4b-f2311be631ca))
  (fp_line (start 5.08 34.29) (end -3.81 25.4) (layer "Dwgs.User") (width 0.05) (tstamp 16afc373-0879-47d0-a1cd-0568f23ac93c))
  (fp_line (start -5.08 33.02) (end -2.54 35.56) (layer "Dwgs.User") (width 0.05) (tstamp 210ab26d-4885-4a0f-b714-91b6ad67933c))
  (fp_line (start -5.08 27.94) (end 2.54 35.56) (layer "Dwgs.User") (width 0.05) (tstamp 24a20838-899c-48c1-8f12-3d982180315c))
  (fp_line (start -5.08 30.48) (end 0 35.56) (layer "Dwgs.User") (width 0.05) (tstamp 369b78ba-7ca7-4d79-9df6-ba114dd31ae6))
  (fp_line (start 5.08 26.67) (end 3.81 25.4) (layer "Dwgs.User") (width 0.05) (tstamp 5676cfc6-3755-4a95-b379-cd82118ab9dc))
  (fp_line (start -5.08 29.21) (end 1.27 35.56) (layer "Dwgs.User") (width 0.05) (tstamp 6170719b-b5ff-4a56-a51f-687e37404a54))
  (fp_line (start -5.08 25.4) (end 5.08 35.56) (layer "Dwgs.User") (width 0.05) (tstamp 63f3de0c-f3c0-4608-9b7a-a6016bbac933))
  (fp_line (start 5.08 27.94) (end 2.54 25.4) (layer "Dwgs.User") (width 0.05) (tstamp 6cc0a864-c2dd-43e5-8e77-679d69086141))
  (fp_line (start 5.08 35.56) (end -5.08 35.56) (layer "Dwgs.User") (width 0.05) (tstamp 8d121b39-5541-4612-8b12-df953bd74498))
  (fp_line (start -5.08 31.75) (end -1.27 35.56) (layer "Dwgs.User") (width 0.05) (tstamp 8e6535f8-f998-454b-8fb3-f13580cd68fe))
  (fp_line (start 5.08 31.75) (end -1.27 25.4) (layer "Dwgs.User") (width 0.05) (tstamp 95327c82-4344-41fa-bb79-37f1db3ad5b3))
  (fp_line (start 5.08 30.48) (end 0 25.4) (layer "Dwgs.User") (width 0.05) (tstamp a8c134cb-b8eb-4aef-bffd-720ab3c22ed0))
  (fp_line (start -5.08 26.67) (end 3.81 35.56) (layer "Dwgs.User") (width 0.05) (tstamp b6049f1c-7b54-46a3-9166-fca19c6438d4))
  (fp_line (start -5.08 35.56) (end -5.08 25.4) (layer "Dwgs.User") (width 0.05) (tstamp b7a86800-c68f-4cb8-871d-317f2a1dcb02))
  (fp_line (start 5.08 33.02) (end -2.54 25.4) (layer "Dwgs.User") (width 0.05) (tstamp c2167ae4-70d8-4e58-9328-ab6fb4bd0b33))
  (fp_line (start 5.08 29.21) (end 1.27 25.4) (layer "Dwgs.User") (width 0.05) (tstamp dba1af4c-b18a-42d8-95ed-ae88d2732ba3))
  (fp_line (start 5.08 25.4) (end 5.08 35.56) (layer "Dwgs.User") (width 0.05) (tstamp ea4ec5cd-306e-462b-9d72-3a62ea0ffef7))
  (fp_line (start -3.36 -3.51) (end -3.36 33.99) (layer "F.CrtYd") (width 0.05) (tstamp 5ab0f0e8-6209-4760-ab76-b22d68a2123a))
  (fp_line (start 21.14 -3.51) (end 21.14 33.99) (layer "F.CrtYd") (width 0.05) (tstamp d16902dd-32a5-4e29-8160-c2febfeb0c25))
  (fp_line (start -3.36 -3.51) (end 21.14 -3.51) (layer "F.CrtYd") (width 0.05) (tstamp d18cf5c9-43d5-4e7e-b008-c170edc312bc))
  (fp_line (start 21.14 33.99) (end -3.36 33.99) (layer "F.CrtYd") (width 0.05) (tstamp f91e353f-c45f-4705-8cdb-a692cb091f0b))
  (fp_line (start -3.11 -1) (end -3.11 -3.26) (layer "F.Fab") (width 0.1) (tstamp 2dc0c4cb-bba9-4574-b1a7-7d14e2928cb9))
  (fp_line (start -3.11 -3.26) (end 20.89 -3.26) (layer "F.Fab") (width 0.1) (tstamp 34550afc-d3ac-499b-8cf9-3265fe093fad))
  (fp_line (start -3.11 33.74) (end 20.89 33.74) (layer "F.Fab") (width 0.1) (tstamp 6d24dee0-3b5b-4e9c-b5d8-a4df947cf79e))
  (fp_line (start 20.89 -3.26) (end 20.89 33.74) (layer "F.Fab") (width 0.1) (tstamp bf4f8c8c-56b9-4e9a-9264-69e7203fc37a))
  (fp_line (start -3.11 -1) (end -2.11 0) (layer "F.Fab") (width 0.1) (tstamp e03b86a1-2f49-4df9-91e5-4c72ee66e05f))
  (fp_line (start -3.11 33.74) (end -3.11 1) (layer "F.Fab") (width 0.1) (tstamp ee25feb7-f4a2-49e0-a2c5-40bf60b8207c))
  (fp_line (start -3.11 1) (end -2.11 0) (layer "F.Fab") (width 0.1) (tstamp ffe9a073-5012-4800-aa66-d0480503463d))
  (pad "1" thru_hole rect (at 0 0 90) (size 2 2) (drill 1) (layers *.Cu *.Mask) (tstamp 1781cd53-d784-4f76-bf28-ed2a93c0c9b2))
  (pad "2" thru_hole circle (at 0 5.08 90) (size 2 2) (drill 1) (layers *.Cu *.Mask) (tstamp 5106ba3b-6b7b-4329-b1f4-40c4ff5ec90d))
  (pad "3" thru_hole circle (at 0 30.48 180) (size 2 2) (drill 1) (layers *.Cu *.Mask) (tstamp caf5820b-c3e4-42e4-8bab-0460a1c2c39e))
  (pad "4" thru_hole circle (at 17.78 30.48 90) (size 2 2) (drill 1) (layers *.Cu *.Mask) (tstamp e8cc188d-8be1-4348-bcdc-997b81cfc7cc))
  (pad "5" thru_hole circle (at 17.78 25.4 90) (size 2 2) (drill 1) (layers *.Cu *.Mask) (tstamp 8ce909ca-9bb8-47f7-ab59-0212696be18f))
  (model "${KICAD6_3DMODEL_DIR}/Converter_ACDC.3dshapes/Converter_ACDC_RECOM_RAC04-xxSGx_THT.wrl"
    (offset (xyz 0 0 0))
    (scale (xyz 1 1 1))
    (rotate (xyz 0 0 0))
  )
)
