(footprint "HDMI_Micro-D_Molex_46765-2x0x" (version 20211014) (generator pcbnew)
  (layer "F.Cu")
  (tedit 5A16B616)
  (descr "HDMI, Micro, Type D, THT/SMD hybrid, 0.4mm pitch, 19 ckt, right angle (http://www.molex.com/pdm_docs/sd/467651301_sd.pdf)")
  (tags "hdmi micro type d right angle tht smd hybrid ")
  (attr smd)
  (fp_text reference "REF**" (at 0 -6.3) (layer "F.SilkS")
    (effects (font (size 1 1) (thickness 0.15)))
    (tstamp b2d60604-6af4-4fb8-9ffd-b9f5728c4dbe)
  )
  (fp_text value "HDMI_Micro-D_Molex_46765-2x0x" (at 0 3.6) (layer "F.Fab")
    (effects (font (size 1 1) (thickness 0.15)))
    (tstamp 237ec258-afa3-4b72-bbea-f78a84c9b2e8)
  )
  (fp_text user "KEEPOUT" (at 0 -0.47) (layer "Cmts.User")
    (effects (font (size 0.7 0.7) (thickness 0.1)))
    (tstamp c9030245-480d-4dc9-8883-cf541e0424a6)
  )
  (fp_text user "${REFERENCE}" (at 0 -3.3) (layer "F.Fab")
    (effects (font (size 1 1) (thickness 0.15)))
    (tstamp 8dfe5784-bd51-4ac4-89b6-b2e7a82f8386)
  )
  (fp_line (start 2.15 -5.16) (end 2.15 -5.36) (layer "F.SilkS") (width 0.12) (tstamp 56f022c3-6fa2-4775-9b09-dd7140d10915))
  (fp_line (start -3.31 2.46) (end -3.31 1.5) (layer "F.SilkS") (width 0.12) (tstamp 660ca568-daa9-4043-b70d-f8c32c086bd9))
  (fp_line (start 2.15 -5.16) (end 3.31 -5.16) (layer "F.SilkS") (width 0.12) (tstamp 6c0e58fc-c693-4c05-b670-0611443580e1))
  (fp_line (start -3.31 2.46) (end 3.31 2.46) (layer "F.SilkS") (width 0.12) (tstamp 84ab401a-fc64-4a0a-9344-b14ad20860d8))
  (fp_line (start 3.31 -2.4) (end 3.31 -1.5) (layer "F.SilkS") (width 0.15) (tstamp 940afe28-0ce2-42b3-859e-917d73bdb6a6))
  (fp_line (start -3.31 -4.35) (end -3.31 -5.16) (layer "F.SilkS") (width 0.12) (tstamp aa9872c6-173f-47c3-9566-445751d07518))
  (fp_line (start -3.31 -5.16) (end -2.15 -5.16) (layer "F.SilkS") (width 0.12) (tstamp aaa91e89-1996-4268-8e02-118e9fac60da))
  (fp_line (start 3.31 1.5) (end 3.31 2.46) (layer "F.SilkS") (width 0.12) (tstamp b8d60d11-e9bd-404f-a890-1dc1a567c871))
  (fp_line (start -3.31 -1.5) (end -3.31 -2.4) (layer "F.SilkS") (width 0.12) (tstamp c4bc7487-1630-4aff-b8ad-3f65821f6df1))
  (fp_line (start 3.31 -5.16) (end 3.31 -4.35) (layer "F.SilkS") (width 0.12) (tstamp e12a4b83-05fa-41af-ae76-efae21e3fbec))
  (fp_line (start -2.35 -0.3) (end -0.01 -2.64) (layer "Dwgs.User") (width 0.1) (tstamp 01640827-9c47-4ae1-abd1-ed1ef202d319))
  (fp_line (start -2.35 -1.3) (end -1.01 -2.64) (layer "Dwgs.User") (width 0.1) (tstamp 283e2113-d84a-4cfa-adc8-fdf44b8513f5))
  (fp_line (start -0.35 1.7) (end 2.35 -1) (layer "Dwgs.User") (width 0.1) (tstamp 2fdbc8aa-ab3d-4e50-ba2f-974295584e5b))
  (fp_line (start -2.35 -2.64) (end 2.35 -2.64) (layer "Dwgs.User") (width 0.1) (tstamp 3b972cd6-1bb8-4e0d-9d4d-5c9761dafbee))
  (fp_line (start -1.35 1.7) (end 2.35 -2) (layer "Dwgs.User") (width 0.1) (tstamp 3f3f4161-3e21-41be-8174-6b050d26d50d))
  (fp_line (start 2.35 1.7) (end -2.35 1.7) (layer "Dwgs.User") (width 0.1) (tstamp 89ad0d2a-a689-42a6-919c-ead2b1c343f7))
  (fp_line (start 1.65 1.7) (end 2.35 1) (layer "Dwgs.User") (width 0.1) (tstamp abb94db0-08c7-4bb1-936e-596509b09bbd))
  (fp_line (start -2.35 1.7) (end -2.35 -2.64) (layer "Dwgs.User") (width 0.1) (tstamp b14f8021-3ecc-49af-b3dd-f01a8fac2403))
  (fp_line (start 0.65 1.7) (end 2.35 0) (layer "Dwgs.User") (width 0.1) (tstamp b35418e7-1aaf-4c54-9282-b7f6da75af58))
  (fp_line (start 2.35 -2.64) (end 2.35 1.7) (layer "Dwgs.User") (width 0.1) (tstamp c6a7e31e-e361-4edc-a63e-e4f6065fc496))
  (fp_line (start -2.35 0.7) (end 0.99 -2.64) (layer "Dwgs.User") (width 0.1) (tstamp d49cbdf5-e2ca-4b6b-96ed-95226371f8ed))
  (fp_line (start -2.35 1.7) (end 1.99 -2.64) (layer "Dwgs.User") (width 0.1) (tstamp d6bd3edd-dbc0-4651-858e-e7e2840f6ea9))
  (fp_line (start -3 1.7) (end 3 1.7) (layer "Dwgs.User") (width 0.1) (tstamp fc39f018-7b4f-425e-8f61-6d8d5b7502e7))
  (fp_line (start 5 2.9) (end 5 -5.7) (layer "F.CrtYd") (width 0.05) (tstamp 11db29fd-eb2a-49c2-a465-2fd75727c3ac))
  (fp_line (start -5 -5.7) (end -5 2.9) (layer "F.CrtYd") (width 0.05) (tstamp 3dc5c5fb-28ed-4a35-b7d7-ffef135bc629))
  (fp_line (start -5 2.9) (end 5 2.9) (layer "F.CrtYd") (width 0.05) (tstamp 8eb8fd9e-5851-4586-90ac-838cb9c05927))
  (fp_line (start 5 -5.7) (end -5 -5.7) (layer "F.CrtYd") (width 0.05) (tstamp b9421f6e-adda-4ca2-950f-5fc0dc48888a))
  (fp_line (start -3.25 -3.95) (end -3.25 -5.1) (layer "F.Fab") (width 0.1) (tstamp 198ca787-97db-43a6-b7b5-fef7c094f184))
  (fp_line (start 3.25 -5.1) (end 3.25 -3.95) (layer "F.Fab") (width 0.1) (tstamp 37784ef6-2cd6-47fb-b1c0-55c052397131))
  (fp_line (start 1.8 -4.6) (end 2.3 -5.1) (layer "F.Fab") (width 0.1) (tstamp 38bb3fda-dd8c-4c4b-8787-8007dc90ce9e))
  (fp_line (start -3.25 -2.77) (end -4.45 -2.77) (layer "F.Fab") (width 0.1) (tstamp 649b4692-06e7-4549-a50e-60b348fbe0bc))
  (fp_line (start 1.8 -4.6) (end 1.3 -5.1) (layer "F.Fab") (width 0.1) (tstamp 6706cb43-8753-4b77-9068-c57ad167b36e))
  (fp_line (start -4.45 -2.77) (end -4.45 -3.95) (layer "F.Fab") (width 0.1) (tstamp 6914fa60-4a41-471b-aeb3-23dce145b4ca))
  (fp_line (start -3.25 -5.1) (end 1.3 -5.1) (layer "F.Fab") (width 0.1) (tstamp 8b7257e9-adc0-4cc3-9273-0dc45a479cff))
  (fp_line (start -4.45 -3.95) (end -3.25 -3.95) (layer "F.Fab") (width 0.1) (tstamp 8e05b127-1387-40b4-b03c-e968e968b1aa))
  (fp_line (start 3.25 -3.95) (end 4.45 -3.95) (layer "F.Fab") (width 0.1) (tstamp a3543a65-41e2-4159-9ea0-c5cc01cd8f5a))
  (fp_line (start -3.25 2.4) (end -3.25 -2.77) (layer "F.Fab") (width 0.1) (tstamp b034c76b-e1a0-401f-9861-07bc62f02a61))
  (fp_line (start 3.25 2.4) (end -3.25 2.4) (layer "F.Fab") (width 0.1) (tstamp b1bb6b99-e094-4747-89ba-762d9cd2aa4e))
  (fp_line (start 4.45 -3.95) (end 4.45 -2.77) (layer "F.Fab") (width 0.1) (tstamp b38db08c-850d-4afa-8e61-45ae534d67f4))
  (fp_line (start 2.3 -5.1) (end 3.25 -5.1) (layer "F.Fab") (width 0.1) (tstamp c1edadd9-5092-4e47-945d-2fab985a9749))
  (fp_line (start 3.25 -2.77) (end 3.25 2.4) (layer "F.Fab") (width 0.1) (tstamp d9b4cb1f-0155-449f-909a-7a35634a5a77))
  (fp_line (start 4.45 -2.77) (end 3.25 -2.77) (layer "F.Fab") (width 0.1) (tstamp f7364d26-125a-4b74-8417-a440cf2b4503))
  (pad "1" smd rect (at 1.8 -4.775) (size 0.23 0.85) (layers "F.Cu" "F.Paste" "F.Mask") (tstamp 245afe7f-e0c0-4ec2-adc0-1971111fedb0))
  (pad "2" smd rect (at 1.6 -3.55) (size 0.23 1) (layers "F.Cu" "F.Paste" "F.Mask") (tstamp bde9fd3c-8c02-4b1f-bfd7-10422f151465))
  (pad "3" smd rect (at 1.4 -4.775) (size 0.23 0.85) (layers "F.Cu" "F.Paste" "F.Mask") (tstamp b4689422-e8a4-48be-b419-67a73f15d689))
  (pad "4" smd rect (at 1.2 -3.55) (size 0.23 1) (layers "F.Cu" "F.Paste" "F.Mask") (tstamp b0371b18-7d1b-430d-8f25-c556ab5bb224))
  (pad "5" smd rect (at 1 -4.775) (size 0.23 0.85) (layers "F.Cu" "F.Paste" "F.Mask") (tstamp f8fcb2de-0e8b-41d2-bee8-39746679eac0))
  (pad "6" smd rect (at 0.8 -3.55) (size 0.23 1) (layers "F.Cu" "F.Paste" "F.Mask") (tstamp 26141a64-8fc7-42bf-ba58-f088a661b3c8))
  (pad "7" smd rect (at 0.6 -4.775) (size 0.23 0.85) (layers "F.Cu" "F.Paste" "F.Mask") (tstamp f13e01f6-5fd1-49d4-9467-75313660c104))
  (pad "8" smd rect (at 0.4 -3.55) (size 0.23 1) (layers "F.Cu" "F.Paste" "F.Mask") (tstamp 2ec6404e-a432-4070-bab1-7f5b195f1371))
  (pad "9" smd rect (at 0.2 -4.775) (size 0.23 0.85) (layers "F.Cu" "F.Paste" "F.Mask") (tstamp c09cd2c8-7f14-4f22-9d54-070fe82b83af))
  (pad "10" smd rect (at 0 -3.55) (size 0.23 1) (layers "F.Cu" "F.Paste" "F.Mask") (tstamp 66753205-6cd2-40c6-a9eb-68e2b370128d))
  (pad "11" smd rect (at -0.2 -4.775) (size 0.23 0.85) (layers "F.Cu" "F.Paste" "F.Mask") (tstamp 0541c69b-1f85-42a4-bba2-9f636b884052))
  (pad "12" smd rect (at -0.4 -3.55) (size 0.23 1) (layers "F.Cu" "F.Paste" "F.Mask") (tstamp 6b6149aa-d226-4f37-9ae6-6d5f23f9ca37))
  (pad "13" smd rect (at -0.6 -4.775) (size 0.23 0.85) (layers "F.Cu" "F.Paste" "F.Mask") (tstamp 9fb61637-f056-4e59-9b80-4ee3d2d21fbf))
  (pad "14" smd rect (at -0.8 -3.55) (size 0.23 1) (layers "F.Cu" "F.Paste" "F.Mask") (tstamp 72421aa2-7353-4947-8e21-2b854da66334))
  (pad "15" smd rect (at -1 -4.775) (size 0.23 0.85) (layers "F.Cu" "F.Paste" "F.Mask") (tstamp 25e05733-61e7-4f50-a13d-206df08d5216))
  (pad "16" smd rect (at -1.2 -3.55) (size 0.23 1) (layers "F.Cu" "F.Paste" "F.Mask") (tstamp 0f2a499e-74ae-4103-bf0f-40531d9113f4))
  (pad "17" smd rect (at -1.4 -4.775) (size 0.23 0.85) (layers "F.Cu" "F.Paste" "F.Mask") (tstamp b42854a0-dac3-46f3-af14-40f394a90039))
  (pad "18" smd rect (at -1.6 -3.55) (size 0.23 1) (layers "F.Cu" "F.Paste" "F.Mask") (tstamp 15304cab-dd9d-4d13-9d71-9522c78bd6d5))
  (pad "19" smd rect (at -1.8 -4.775) (size 0.23 0.85) (layers "F.Cu" "F.Paste" "F.Mask") (tstamp 3915655e-733c-4ea4-9c93-fa4e7d291867))
  (pad "SH" thru_hole oval (at 3.1 0) (size 1.5 2.55) (drill oval 0.65 1.7) (layers *.Cu *.Mask) (tstamp 196161db-c6f8-4f66-95fd-d3c2198ec9be))
  (pad "SH" smd rect (at 3.45 -3.36) (size 2.4 1.38) (layers "F.Cu" "F.Paste" "F.Mask") (tstamp 1c470107-3d7c-4d4e-947b-b97464d1a1f2))
  (pad "SH" thru_hole oval (at -3.1 0) (size 1.5 2.55) (drill oval 0.65 1.7) (layers *.Cu *.Mask) (tstamp 63536650-e2cf-44c5-9bdc-5689a49cd73f))
  (pad "SH" smd rect (at -3.45 -3.36) (size 2.4 1.38) (layers "F.Cu" "F.Paste" "F.Mask") (tstamp 84411b3e-97e6-42e3-8f48-1d763a0a1d43))
  (model "${KICAD6_3DMODEL_DIR}/Connector_HDMI.3dshapes/HDMI_Micro-D_Molex_46765-2x0x.wrl"
    (offset (xyz 0 0 0))
    (scale (xyz 1 1 1))
    (rotate (xyz 0 0 0))
  )
)
