(footprint "Microchip_RN4871" (version 20211014) (generator pcbnew)
  (layer "F.Cu")
  (tedit 5A0FEF3D)
  (descr "Microchip RN4871 footprint")
  (tags "RN4871 BLE")
  (attr smd)
  (fp_text reference "REF**" (at 0 -9.3) (layer "F.SilkS")
    (effects (font (size 1 1) (thickness 0.15)))
    (tstamp e4e6c438-747c-40e6-93ff-2328054c9e25)
  )
  (fp_text value "Microchip_RN4871" (at 0 4.8) (layer "F.Fab")
    (effects (font (size 1 1) (thickness 0.15)))
    (tstamp 56348347-ca4f-4f01-b3b5-2f260ebaf309)
  )
  (fp_text user "KEEP-OUT ZONE" (at 0 -7.3) (layer "Cmts.User")
    (effects (font (size 0.5 0.5) (thickness 0.1)))
    (tstamp 2158a9c6-95b8-4ec2-834a-bbe07aa6c0a0)
  )
  (fp_text user "On any layer" (at 0 -5.7) (layer "Cmts.User")
    (effects (font (size 0.25 0.25) (thickness 0.05)))
    (tstamp 493c4fd8-c030-4c25-a2d5-a6ca442933e3)
  )
  (fp_text user "KEEP-OUT ZONE" (at -2.575 -2.5 90) (layer "Cmts.User")
    (effects (font (size 0.25 0.25) (thickness 0.05)))
    (tstamp 97d27967-ba72-4789-9009-2daf70499c69)
  )
  (fp_text user "KEEP-OUT ZONE" (at 1.825 -0.825 90) (layer "Cmts.User")
    (effects (font (size 0.25 0.25) (thickness 0.05)))
    (tstamp 9f07ddc9-48ab-4888-a821-eda45ea4b99f)
  )
  (fp_text user "No Metal, No Traces, Components" (at 0 -6.2) (layer "Cmts.User")
    (effects (font (size 0.25 0.25) (thickness 0.05)))
    (tstamp a6032f96-bd1e-4a99-ad4b-516bfbe306fb)
  )
  (fp_text user "${REFERENCE}" (at 0 -2.5) (layer "F.Fab")
    (effects (font (size 1 1) (thickness 0.1)))
    (tstamp bfa9f466-153f-4f87-b580-1a620c3c4a69)
  )
  (fp_line (start -4.7 -4.1) (end -4.7 -4.4) (layer "F.SilkS") (width 0.1) (tstamp 87dcbc2e-a0da-4cc2-ac56-fec1b49cc638))
  (fp_line (start -5.1 -4.1) (end -4.7 -4.1) (layer "F.SilkS") (width 0.1) (tstamp a9b48f2b-eb44-444b-8e21-40f66a82ca8a))
  (fp_line (start -2.75 -4.25) (end -3.5 -3.5) (layer "Dwgs.User") (width 0.05) (tstamp 09ead4ff-6bca-4401-8c48-01e35ae3acf0))
  (fp_line (start 3.25 -4.25) (end 4.5 -5.5) (layer "Dwgs.User") (width 0.05) (tstamp 192dce3b-0932-4f8e-a689-05131025e554))
  (fp_line (start 4.5 -4.25) (end 4.5 -8.25) (layer "Dwgs.User") (width 0.1) (tstamp 1cc78e22-99c8-41cf-97fa-b22ab5b2df86))
  (fp_line (start 0.75 -3.75) (end -0.2 -2.8) (layer "Dwgs.User") (width 0.05) (tstamp 1cd2e4e0-e105-49d1-906b-6fb84a109f3f))
  (fp_line (start -1.75 -4.25) (end -3.5 -2.5) (layer "Dwgs.User") (width 0.05) (tstamp 1e3500e3-9dd8-46e9-8ea1-84ca15711c57))
  (fp_line (start -4.5 -6.5) (end -2.75 -8.25) (layer "Dwgs.User") (width 0.05) (tstamp 25a780e8-aef2-4570-b8b3-749fdc7b4059))
  (fp_line (start -1.6 -0.75) (end -1.6 -4.25) (layer "Dwgs.User") (width 0.1) (tstamp 29a00d4e-348f-480f-a4f6-099fa8679dc6))
  (fp_line (start -2.75 -4.25) (end 1.25 -8.25) (layer "Dwgs.User") (width 0.05) (tstamp 3b234eb1-8261-409b-91e6-ebac7c958891))
  (fp_line (start 2.75 -3.75) (end -0.2 -0.8) (layer "Dwgs.User") (width 0.05) (tstamp 3fd99f4f-5e91-4c6c-a073-c3a4dc47a7da))
  (fp_line (start 1.25 -4.25) (end 4.5 -7.5) (layer "Dwgs.User") (width 0.05) (tstamp 4112d3f0-19c0-42ee-b067-fcbd6cfb142c))
  (fp_line (start 1.75 -3.75) (end -0.2 -1.8) (layer "Dwgs.User") (width 0.05) (tstamp 42a778af-8b71-4b62-83f8-04ba4432d4ee))
  (fp_line (start 2.25 -4.25) (end 4.5 -6.5) (layer "Dwgs.User") (width 0.05) (tstamp 457aab64-886a-4dc1-9516-a644f823e09e))
  (fp_line (start -4.5 -4.5) (end -0.75 -8.25) (layer "Dwgs.User") (width 0.05) (tstamp 467b3e18-ed55-4d2e-bc40-04148f86671f))
  (fp_line (start 1.3 1.7) (end 3.5 -0.5) (layer "Dwgs.User") (width 0.05) (tstamp 4ab95fd2-b6c9-4cb1-bb1a-8ebca15a7f2b))
  (fp_line (start -3.25 -0.75) (end -1.6 -2.375) (layer "Dwgs.User") (width 0.05) (tstamp 691df6e6-6cd6-41d5-a715-17f811e10043))
  (fp_line (start -3.5 -1.5) (end -1.6 -3.375) (layer "Dwgs.User") (width 0.05) (tstamp 6c76b94e-1c6f-4549-b9c7-40c9cbab33e5))
  (fp_line (start -2.25 -0.75) (end -1.6 -1.375) (layer "Dwgs.User") (width 0.05) (tstamp 80c202bd-41ae-47fb-bca0-e4d83a282b5b))
  (fp_line (start -3.5 -4.25) (end -3.5 -0.75) (layer "Dwgs.User") (width 0.1) (tstamp 876cebd5-1f8a-4a41-a08c-dbf0d9147486))
  (fp_line (start 3.5 1.7) (end 3.5 -3.75) (layer "Dwgs.User") (width 0.1) (tstamp 8bfe9123-01f9-4c00-9e79-e54577cdd770))
  (fp_line (start -4.5 -5.5) (end -1.75 -8.25) (layer "Dwgs.User") (width 0.05) (tstamp 8d8e90ae-3627-45b6-834a-5daaf9d4ca36))
  (fp_line (start 4.5 -8.25) (end -4.5 -8.25) (layer "Dwgs.User") (width 0.1) (tstamp 915e841b-8137-4cac-bcc3-46a5dcb41545))
  (fp_line (start -1.75 -4.25) (end 2.25 -8.25) (layer "Dwgs.User") (width 0.05) (tstamp 91b0b09d-e12a-4485-8350-90883a01e639))
  (fp_line (start -4.5 -4.25) (end -4.5 -8.25) (layer "Dwgs.User") (width 0.1) (tstamp 924e4994-e4bc-445b-94a7-a84128b65c42))
  (fp_line (start -4.5 -7.5) (end -3.75 -8.25) (layer "Dwgs.User") (width 0.05) (tstamp 95822e8a-89b2-4c42-b4ee-9713d6013e8e))
  (fp_line (start -3.5 -0.75) (end -1.6 -0.75) (layer "Dwgs.User") (width 0.1) (tstamp 978e9c8f-6807-4b25-983a-2c10d72b7f20))
  (fp_line (start 2.3 1.7) (end 3.5 0.5) (layer "Dwgs.User") (width 0.05) (tstamp 98eb912e-44bc-458d-b429-a6f02459e628))
  (fp_line (start -3.5 -4.25) (end -1.6 -4.25) (layer "Dwgs.User") (width 0.1) (tstamp 9aaf5278-4be1-4fd6-bc3d-73641cbd86df))
  (fp_line (start 0.25 -8.25) (end -3.75 -4.25) (layer "Dwgs.User") (width 0.05) (tstamp 9d101589-a81a-413e-a835-b056ae8f1893))
  (fp_line (start 0.25 -4.25) (end 4.25 -8.25) (layer "Dwgs.User") (width 0.05) (tstamp a1cc1e05-c2a4-4a7d-be50-e5f0d28b7cde))
  (fp_line (start -0.2 1.7) (end 3.5 1.7) (layer "Dwgs.User") (width 0.1) (tstamp bdfcfa2c-fa85-4e8d-ad7d-87eca4e9c049))
  (fp_line (start -4.5 -4.25) (end 4.5 -4.25) (layer "Dwgs.User") (width 0.1) (tstamp cc75a26a-70eb-4dfe-a6d7-a3d743ccbc65))
  (fp_line (start 0.3 1.7) (end 3.5 -1.5) (layer "Dwgs.User") (width 0.05) (tstamp cef08557-97dc-425c-84b5-d33d63e1028f))
  (fp_line (start 3.5 -3.75) (end -0.2 -3.75) (layer "Dwgs.User") (width 0.1) (tstamp dc13e042-3c93-413c-a539-a5ae8aa3feac))
  (fp_line (start -0.2 -3.75) (end -0.2 1.7) (layer "Dwgs.User") (width 0.1) (tstamp e1523671-0d35-43d8-b794-5d4aa635d267))
  (fp_line (start -0.75 -4.25) (end 3.25 -8.25) (layer "Dwgs.User") (width 0.05) (tstamp ebefb4fd-302c-4a3b-a710-a0ac9a0e8d39))
  (fp_line (start 3.5 -2.5) (end -0.2 1.2) (layer "Dwgs.User") (width 0.05) (tstamp f02db7bc-2f43-48db-8c77-c7a4e36b1673))
  (fp_line (start 3.5 -3.5) (end -0.2 0.2) (layer "Dwgs.User") (width 0.05) (tstamp f146fb67-a6cb-4d0b-9c85-16a27cc9db8f))
  (fp_line (start -5.38 4.08) (end 5.36 4.08) (layer "F.CrtYd") (width 0.05) (tstamp 136cfcde-f951-46e4-8f8e-5d540f84266e))
  (fp_line (start 5.36 4.08) (end 5.36 -8.61) (layer "F.CrtYd") (width 0.05) (tstamp 164397f7-3508-460b-a22b-47b9e1ab4740))
  (fp_line (start 5.38 -8.61) (end -5.38 -8.61) (layer "F.CrtYd") (width 0.05) (tstamp c87d9ee9-d105-4d80-a68e-689c3dbdb1b1))
  (fp_line (start -5.38 4.08) (end -5.38 -8.61) (layer "F.CrtYd") (width 0.05) (tstamp d24edef9-230a-4036-9112-bf2bdcbefbd9))
  (fp_line (start 4.5 3.25) (end 4.5 -8.25) (layer "F.Fab") (width 0.1) (tstamp 5af8c5cc-fa59-4b4d-af1c-b015149cd992))
  (fp_line (start -4.5 -8.25) (end -4.5 3.25) (layer "F.Fab") (width 0.1) (tstamp 60aedfba-1877-408b-8361-382ffa335794))
  (fp_line (start -4.5 3.25) (end 4.5 3.25) (layer "F.Fab") (width 0.1) (tstamp 901907af-c6c1-4290-adba-513601a86a2f))
  (pad "1" smd rect (at -4.35 -3.45 90) (size 0.7 1.5) (layers "F.Cu" "F.Paste" "F.Mask") (tstamp 966ea784-1f14-4356-af65-59c41a9b81ea))
  (pad "2" smd rect (at -4.35 -2.25 90) (size 0.7 1.5) (layers "F.Cu" "F.Paste" "F.Mask") (tstamp e08ec44e-ccd8-4025-814c-61dfde2aae7b))
  (pad "3" smd rect (at -4.35 -1.05 90) (size 0.7 1.5) (layers "F.Cu" "F.Paste" "F.Mask") (tstamp 0166cf9b-8d4e-4309-b276-df155c8eef98))
  (pad "4" smd rect (at -4.35 0.15 90) (size 0.7 1.5) (layers "F.Cu" "F.Paste" "F.Mask") (tstamp 4b4df23d-1d6d-4013-9921-acb327d392ea))
  (pad "5" smd rect (at -4.35 1.35 90) (size 0.7 1.5) (layers "F.Cu" "F.Paste" "F.Mask") (tstamp 4febdabb-e8a8-4e00-9f19-f5b3b257f222))
  (pad "6" smd rect (at -3 3.05) (size 0.7 1.5) (layers "F.Cu" "F.Paste" "F.Mask") (tstamp 35a4a330-cf0a-48f0-9dd2-d1be62d74e54))
  (pad "7" smd rect (at -1.8 3.05) (size 0.7 1.5) (layers "F.Cu" "F.Paste" "F.Mask") (tstamp 08ca46bb-8ca1-4388-8d28-9af2294513ab))
  (pad "8" smd rect (at -0.6 3.05) (size 0.7 1.5) (layers "F.Cu" "F.Paste" "F.Mask") (tstamp 33ac44c3-6c7d-47b8-9f66-f7b721bf29fa))
  (pad "9" smd rect (at 0.6 3.05) (size 0.7 1.5) (layers "F.Cu" "F.Paste" "F.Mask") (tstamp d238bfb3-6fac-494e-8bf8-b8a9580aad5c))
  (pad "10" smd rect (at 1.8 3.05) (size 0.7 1.5) (layers "F.Cu" "F.Paste" "F.Mask") (tstamp bd258088-81ab-45a9-9964-6d8ce13bb184))
  (pad "11" smd rect (at 3 3.05) (size 0.7 1.5) (layers "F.Cu" "F.Paste" "F.Mask") (tstamp 019ea70f-695c-415c-bde5-3af32b94edba))
  (pad "12" smd rect (at 4.35 1.35 90) (size 0.7 1.5) (layers "F.Cu" "F.Paste" "F.Mask") (tstamp 9caadaab-0fcc-4a00-b0f9-a0bad635f380))
  (pad "13" smd rect (at 4.35 0.15 90) (size 0.7 1.5) (layers "F.Cu" "F.Paste" "F.Mask") (tstamp cf768fbf-951a-43d4-a692-e53285665e20))
  (pad "14" smd rect (at 4.35 -1.05 90) (size 0.7 1.5) (layers "F.Cu" "F.Paste" "F.Mask") (tstamp 284e650a-809f-45d8-920d-19343fe8bf81))
  (pad "15" smd rect (at 4.35 -2.3 90) (size 0.7 1.5) (layers "F.Cu" "F.Paste" "F.Mask") (tstamp 491fc85a-642a-46cc-9ec2-28cc7eb5cf8b))
  (pad "16" smd rect (at 4.35 -3.45 90) (size 0.7 1.5) (layers "F.Cu" "F.Paste" "F.Mask") (tstamp 868a1f52-a571-4ec8-b4aa-00ec886bf8c9))
  (model "${KICAD6_3DMODEL_DIR}/RF_Module.3dshapes/Microchip_RN4871.wrl"
    (offset (xyz 0 0 0))
    (scale (xyz 1 1 1))
    (rotate (xyz 0 0 0))
  )
)
