(footprint "InvenSense_QFN-24_3x3mm_P0.4mm" (version 20211014) (generator pcbnew)
  (layer "F.Cu")
  (tedit 5B5A6A65)
  (descr "24-Lead Plastic QFN (3mm x 3mm); Pitch 0.4mm; EP 1.7x1.54mm; for InvenSense motion sensors; keepout area marked (Package see: https://store.invensense.com/datasheets/invensense/MPU9250REV1.0.pdf; See also https://www.invensense.com/wp-content/uploads/2015/02/InvenSense-MEMS-Handling.pdf)")
  (tags "QFN 0.4")
  (attr smd)
  (fp_text reference "REF**" (at 0 -3.25) (layer "F.SilkS")
    (effects (font (size 1 1) (thickness 0.15)))
    (tstamp ef4cb44a-c63f-4f85-912c-08664c7f4012)
  )
  (fp_text value "InvenSense_QFN-24_3x3mm_P0.4mm" (at 0 3.25) (layer "F.Fab")
    (effects (font (size 1 1) (thickness 0.15)))
    (tstamp 3f2362a0-b170-41c4-a9a8-27963e526593)
  )
  (fp_text user "No Copper" (at 0 -0.1) (layer "Cmts.User")
    (effects (font (size 0.2 0.2) (thickness 0.04)))
    (tstamp 744046d5-37e6-4b0d-8d6b-4a258093b2d8)
  )
  (fp_text user "KEEPOUT" (at 0 -0.5) (layer "Cmts.User")
    (effects (font (size 0.2 0.2) (thickness 0.04)))
    (tstamp 75c2d1ed-1ee1-4f7a-8a72-8dc7534e222b)
  )
  (fp_text user "Directly Below" (at 0 0.25) (layer "Cmts.User")
    (effects (font (size 0.2 0.2) (thickness 0.04)))
    (tstamp ab33ed5f-c5cd-4afa-936a-768a54dcf0ee)
  )
  (fp_text user "Component" (at 0 0.55) (layer "Cmts.User")
    (effects (font (size 0.2 0.2) (thickness 0.04)))
    (tstamp dff5552f-fcd9-4b2b-a091-78ee18f0da10)
  )
  (fp_text user "${REFERENCE}" (at 0 0) (layer "F.Fab")
    (effects (font (size 0.7 0.7) (thickness 0.105)))
    (tstamp 32ecea21-4c75-4ef4-a8df-625f6ef28e21)
  )
  (fp_line (start -1.6 -1.6) (end -1.2 -1.6) (layer "F.SilkS") (width 0.15) (tstamp 085ff2c7-2b30-4230-bd9f-b456c5710885))
  (fp_line (start 1.6 1.6) (end 1.2 1.6) (layer "F.SilkS") (width 0.15) (tstamp 13a87ee7-257c-4331-a029-3eae4ad2d614))
  (fp_line (start -1.6 1.6) (end -1.6 1.2) (layer "F.SilkS") (width 0.15) (tstamp 236e8486-f299-461d-b313-385a0cfa35c3))
  (fp_line (start 1.6 1.6) (end 1.6 1.2) (layer "F.SilkS") (width 0.15) (tstamp 64ffd2fd-c761-43de-b49a-0e0c6e9d3183))
  (fp_line (start 1.6 -1.6) (end 1.6 -1.2) (layer "F.SilkS") (width 0.15) (tstamp 879c3d3b-9a4d-4eb5-b1db-d45b23db2891))
  (fp_line (start -1.6 1.6) (end -1.2 1.6) (layer "F.SilkS") (width 0.15) (tstamp 9f2e6b9c-c4d7-4e3e-b093-c33052f03b10))
  (fp_line (start 1.6 -1.6) (end 1.2 -1.6) (layer "F.SilkS") (width 0.15) (tstamp eb445390-f9d8-4b23-9a4c-5f5308170e78))
  (fp_line (start 0.875 0.295) (end 0.375 0.795) (layer "Dwgs.User") (width 0.05) (tstamp 04816d5c-c3ca-4f69-bcf2-a7c0e645a10a))
  (fp_line (start -0.875 0.795) (end 0.875 0.795) (layer "Dwgs.User") (width 0.05) (tstamp 1e36b708-8b65-45e7-82bc-0c9bb057b9bb))
  (fp_line (start 0.875 -0.205) (end -0.125 0.795) (layer "Dwgs.User") (width 0.05) (tstamp 3583c407-77c9-4709-804e-3d89edc382fe))
  (fp_line (start 0.875 -0.705) (end -0.625 0.795) (layer "Dwgs.User") (width 0.05) (tstamp 46281db3-9187-402b-8170-a561cb29a878))
  (fp_line (start -0.875 -0.795) (end 0.875 -0.795) (layer "Dwgs.User") (width 0.05) (tstamp 46463cde-4a7b-4da6-a3df-5bee65829e38))
  (fp_line (start 0.465 -0.795) (end -0.875 0.545) (layer "Dwgs.User") (width 0.05) (tstamp 54e0a2cf-3b5c-4c66-ab84-cac6ebae856b))
  (fp_line (start 0.875 -0.795) (end 0.875 0.795) (layer "Dwgs.User") (width 0.05) (tstamp 56cfd6e1-eaed-4d93-91d4-80c5addbe737))
  (fp_line (start -0.035 -0.795) (end -0.875 0.045) (layer "Dwgs.User") (width 0.05) (tstamp 7c843575-15fd-4289-ab0d-e24bc732bbbc))
  (fp_line (start -0.535 -0.795) (end -0.875 -0.455) (layer "Dwgs.User") (width 0.05) (tstamp a292b7df-f762-4dab-af0d-fa8d63bf019e))
  (fp_line (start -0.875 -0.795) (end -0.875 0.795) (layer "Dwgs.User") (width 0.05) (tstamp f6d4321a-b6fd-45d7-8881-4ae59413ae60))
  (fp_line (start 2.05 2.05) (end -2.05 2.05) (layer "F.CrtYd") (width 0.05) (tstamp 2aa4840f-cdc8-4dd8-8ae8-97022d7874f0))
  (fp_line (start 2.05 -2.05) (end 2.05 2.05) (layer "F.CrtYd") (width 0.05) (tstamp 466b0e69-16eb-42f8-9999-3961816da8e9))
  (fp_line (start -2.05 2.05) (end -2.05 -2.05) (layer "F.CrtYd") (width 0.05) (tstamp 940036f7-7f0d-4d19-a558-a68e2cef5595))
  (fp_line (start -2.05 -2.05) (end 2.05 -2.05) (layer "F.CrtYd") (width 0.05) (tstamp c2178f9a-6667-4e79-b584-1013a3788212))
  (fp_line (start -1.5 -0.5) (end -0.5 -1.5) (layer "F.Fab") (width 0.15) (tstamp 564eab25-920f-43f9-8da7-031efe408573))
  (fp_line (start -1.5 1.5) (end -1.5 -0.5) (layer "F.Fab") (width 0.15) (tstamp 73d5c23d-0a5b-439d-a136-7807cbe70538))
  (fp_line (start -0.5 -1.5) (end 1.5 -1.5) (layer "F.Fab") (width 0.15) (tstamp bc198314-3250-464b-b66e-2987e1dd2c29))
  (fp_line (start 1.5 1.5) (end -1.5 1.5) (layer "F.Fab") (width 0.15) (tstamp cf57229f-4f0a-4553-b8e6-b755b9085ff7))
  (fp_line (start 1.5 -1.5) (end 1.5 1.5) (layer "F.Fab") (width 0.15) (tstamp d2ad2c02-263f-4c58-8a6d-6b900a16a0f7))
  (pad "1" smd roundrect (at -1.5 -1) (size 0.55 0.2) (layers "F.Cu" "F.Paste" "F.Mask") (roundrect_rratio 0.25) (tstamp 9e683f15-80b6-4c29-93ed-b3cbd2915ac7))
  (pad "2" smd roundrect (at -1.5 -0.6) (size 0.55 0.2) (layers "F.Cu" "F.Paste" "F.Mask") (roundrect_rratio 0.25) (tstamp fe255f3c-f8f1-4a6f-ab2e-1b0f0bec80b1))
  (pad "3" smd roundrect (at -1.5 -0.2) (size 0.55 0.2) (layers "F.Cu" "F.Paste" "F.Mask") (roundrect_rratio 0.25) (tstamp 55e33e35-d646-4692-a2b8-a19716d3c907))
  (pad "4" smd roundrect (at -1.5 0.2) (size 0.55 0.2) (layers "F.Cu" "F.Paste" "F.Mask") (roundrect_rratio 0.25) (tstamp c770b096-eba5-403e-8cf8-b7550594f951))
  (pad "5" smd roundrect (at -1.5 0.6) (size 0.55 0.2) (layers "F.Cu" "F.Paste" "F.Mask") (roundrect_rratio 0.25) (tstamp 39e15de2-d9f1-43b7-ae9a-f8bc3fcf637d))
  (pad "6" smd roundrect (at -1.5 1) (size 0.55 0.2) (layers "F.Cu" "F.Paste" "F.Mask") (roundrect_rratio 0.25) (tstamp 5fd987a4-347e-466d-b45d-176360e48b7e))
  (pad "7" smd roundrect (at -1 1.5 90) (size 0.55 0.2) (layers "F.Cu" "F.Paste" "F.Mask") (roundrect_rratio 0.25) (tstamp fad23f4c-bb00-4cf9-ac32-c3849d96fe7a))
  (pad "8" smd roundrect (at -0.6 1.5 90) (size 0.55 0.2) (layers "F.Cu" "F.Paste" "F.Mask") (roundrect_rratio 0.25) (tstamp 0e59c94a-4dec-4954-896f-bf3af907bc91))
  (pad "9" smd roundrect (at -0.2 1.5 90) (size 0.55 0.2) (layers "F.Cu" "F.Paste" "F.Mask") (roundrect_rratio 0.25) (tstamp 9eee5d5d-e701-4a20-9f5f-ccbe75c074fe))
  (pad "10" smd roundrect (at 0.2 1.5 90) (size 0.55 0.2) (layers "F.Cu" "F.Paste" "F.Mask") (roundrect_rratio 0.25) (tstamp 1991c9b0-a142-4e9a-9817-8f248f809a86))
  (pad "11" smd roundrect (at 0.6 1.5 90) (size 0.55 0.2) (layers "F.Cu" "F.Paste" "F.Mask") (roundrect_rratio 0.25) (tstamp 916703d9-f1ca-433c-b972-d8c5097c04b3))
  (pad "12" smd roundrect (at 1 1.5 90) (size 0.55 0.2) (layers "F.Cu" "F.Paste" "F.Mask") (roundrect_rratio 0.25) (tstamp 94c8f1f9-3292-46b1-a5a1-03ce6f63dc34))
  (pad "13" smd roundrect (at 1.5 1) (size 0.55 0.2) (layers "F.Cu" "F.Paste" "F.Mask") (roundrect_rratio 0.25) (tstamp ed12d0a9-38f1-4dda-a8a2-ea187768c322))
  (pad "14" smd roundrect (at 1.5 0.6) (size 0.55 0.2) (layers "F.Cu" "F.Paste" "F.Mask") (roundrect_rratio 0.25) (tstamp 00232e35-a0af-4f11-9c38-b6821250507b))
  (pad "15" smd roundrect (at 1.5 0.2) (size 0.55 0.2) (layers "F.Cu" "F.Paste" "F.Mask") (roundrect_rratio 0.25) (tstamp 6d602361-be17-4e45-8feb-ef6b086f4936))
  (pad "16" smd roundrect (at 1.5 -0.2) (size 0.55 0.2) (layers "F.Cu" "F.Paste" "F.Mask") (roundrect_rratio 0.25) (tstamp 7873751f-eb70-47a8-bbbb-e76405559204))
  (pad "17" smd roundrect (at 1.5 -0.6) (size 0.55 0.2) (layers "F.Cu" "F.Paste" "F.Mask") (roundrect_rratio 0.25) (tstamp b02f1a9a-5074-4ca0-93e7-f208aa0a92d0))
  (pad "18" smd roundrect (at 1.5 -1) (size 0.55 0.2) (layers "F.Cu" "F.Paste" "F.Mask") (roundrect_rratio 0.25) (tstamp 4bcde9f9-16e6-4150-9178-1ec4852bfbcd))
  (pad "19" smd roundrect (at 1 -1.5 90) (size 0.55 0.2) (layers "F.Cu" "F.Paste" "F.Mask") (roundrect_rratio 0.25) (tstamp aac69238-030b-4ff4-a2b7-164877b20dbc))
  (pad "20" smd roundrect (at 0.6 -1.5 90) (size 0.55 0.2) (layers "F.Cu" "F.Paste" "F.Mask") (roundrect_rratio 0.25) (tstamp 8687c812-3169-4762-9d28-7f290a0a8efd))
  (pad "21" smd roundrect (at 0.2 -1.5 90) (size 0.55 0.2) (layers "F.Cu" "F.Paste" "F.Mask") (roundrect_rratio 0.25) (tstamp 293de7bb-b32d-4b74-b05c-e8608b54b6e2))
  (pad "22" smd roundrect (at -0.2 -1.5 90) (size 0.55 0.2) (layers "F.Cu" "F.Paste" "F.Mask") (roundrect_rratio 0.25) (tstamp 69d77d41-7750-4672-8d61-597bd31bc5e0))
  (pad "23" smd roundrect (at -0.6 -1.5 90) (size 0.55 0.2) (layers "F.Cu" "F.Paste" "F.Mask") (roundrect_rratio 0.25) (tstamp fdbc4650-6d80-4c14-9bea-c1fbddf60b01))
  (pad "24" smd roundrect (at -1 -1.5 90) (size 0.55 0.2) (layers "F.Cu" "F.Paste" "F.Mask") (roundrect_rratio 0.25) (tstamp 1191eb62-cf7b-4910-b7bc-bdeeb437ba9b))
  (model "${KICAD6_3DMODEL_DIR}/Package_DFN_QFN.3dshapes/QFN-24_3x3mm_P0.4mm_EP1.7x1.54mm.wrl"
    (offset (xyz 0 0 0))
    (scale (xyz 1 1 1))
    (rotate (xyz 0 0 0))
  )
)
