(footprint "InvenSense_QFN-24_3x3mm_P0.4mm_NoMask" (version 20211014) (generator pcbnew)
  (layer "F.Cu")
  (tedit 5B5A71BF)
  (descr "24-Lead Plastic QFN (3mm x 3mm); Pitch 0.4mm; EP 1.7x1.54mm; for InvenSense motion sensors; Mask removed below exposed pad; keepout area marked (Package see: https://store.invensense.com/datasheets/invensense/MPU9250REV1.0.pdf; See also https://www.invensense.com/wp-content/uploads/2015/02/InvenSense-MEMS-Handling.pdf)")
  (tags "QFN 0.4")
  (attr smd)
  (fp_text reference "REF**" (at 0 -3.25) (layer "F.SilkS")
    (effects (font (size 1 1) (thickness 0.15)))
    (tstamp 519e15c8-6bd0-44c3-96d2-0b15632b9351)
  )
  (fp_text value "InvenSense_QFN-24_3x3mm_P0.4mm_NoMask" (at 0 3.25) (layer "F.Fab")
    (effects (font (size 1 1) (thickness 0.15)))
    (tstamp f26bb272-f6e9-442b-a2d0-fae8888316b1)
  )
  (fp_text user "KEEPOUT" (at 0 -0.5) (layer "Cmts.User")
    (effects (font (size 0.2 0.2) (thickness 0.04)))
    (tstamp 76ae3a8a-1f27-445a-a956-d7991224f89a)
  )
  (fp_text user "No Copper" (at 0 -0.1) (layer "Cmts.User")
    (effects (font (size 0.2 0.2) (thickness 0.04)))
    (tstamp 76d9b926-69ba-4b84-8fe8-91f8a19b7ec8)
  )
  (fp_text user "Component" (at 0 0.55) (layer "Cmts.User")
    (effects (font (size 0.2 0.2) (thickness 0.04)))
    (tstamp bca10e7c-30f4-4b24-8b6a-4da3fbbec055)
  )
  (fp_text user "Directly Below" (at 0 0.25) (layer "Cmts.User")
    (effects (font (size 0.2 0.2) (thickness 0.04)))
    (tstamp f5b4b8b9-0cec-4136-b586-d4e5d4dc9320)
  )
  (fp_text user "${REFERENCE}" (at 0 0) (layer "F.Fab")
    (effects (font (size 0.7 0.7) (thickness 0.105)))
    (tstamp 4b2d7e10-dccf-4ee6-8eb6-5de34226c2e1)
  )
  (fp_line (start -1.6 1.6) (end -1.6 1.2) (layer "F.SilkS") (width 0.15) (tstamp 2312daba-6f9b-438c-8eb5-c7abfb2b7b07))
  (fp_line (start 1.6 -1.6) (end 1.2 -1.6) (layer "F.SilkS") (width 0.15) (tstamp 2ec54ce5-0c2e-46c8-8a88-a58d9e94c1e3))
  (fp_line (start -1.6 1.6) (end -1.2 1.6) (layer "F.SilkS") (width 0.15) (tstamp 538bfbcb-c4b9-418e-aa01-3467faf008e8))
  (fp_line (start 1.6 -1.6) (end 1.6 -1.2) (layer "F.SilkS") (width 0.15) (tstamp 5df21c72-5b45-4baf-8db4-c5750f590e0d))
  (fp_line (start 1.6 1.6) (end 1.6 1.2) (layer "F.SilkS") (width 0.15) (tstamp 6d3fd11b-50d5-468d-9595-a61411fb7e66))
  (fp_line (start -1.6 -1.6) (end -1.2 -1.6) (layer "F.SilkS") (width 0.15) (tstamp 7109d400-e185-4cfc-b929-e2e3181551e2))
  (fp_line (start 1.6 1.6) (end 1.2 1.6) (layer "F.SilkS") (width 0.15) (tstamp d5a4bcdd-e520-4383-ac1f-ac3490759408))
  (fp_line (start -0.535 -0.795) (end -0.875 -0.455) (layer "Dwgs.User") (width 0.05) (tstamp 1999d01d-6455-4c9c-a234-beb07b3ab96d))
  (fp_line (start 0.875 0.295) (end 0.375 0.795) (layer "Dwgs.User") (width 0.05) (tstamp 23d1df6f-be23-4327-9d6b-89323a22a505))
  (fp_line (start -0.875 -0.795) (end -0.875 0.795) (layer "Dwgs.User") (width 0.05) (tstamp 35f0eb1d-6ff4-4825-9a5a-9965806fe6da))
  (fp_line (start 0.875 -0.705) (end -0.625 0.795) (layer "Dwgs.User") (width 0.05) (tstamp 5885005f-87de-46e8-b31e-b8e400e77209))
  (fp_line (start 0.875 -0.205) (end -0.125 0.795) (layer "Dwgs.User") (width 0.05) (tstamp 671945b5-126a-4ba3-abbd-5f1b8381a5bc))
  (fp_line (start 0.875 -0.795) (end 0.875 0.795) (layer "Dwgs.User") (width 0.05) (tstamp 76185707-a956-4a87-b482-d4dd527fe68b))
  (fp_line (start -0.875 0.795) (end 0.875 0.795) (layer "Dwgs.User") (width 0.05) (tstamp 7ceb4455-4dee-4197-8726-cf0fab6f752f))
  (fp_line (start -0.875 -0.795) (end 0.875 -0.795) (layer "Dwgs.User") (width 0.05) (tstamp c59ad728-a6ad-474e-b033-0bf10ee7b269))
  (fp_line (start -0.035 -0.795) (end -0.875 0.045) (layer "Dwgs.User") (width 0.05) (tstamp e358520a-47dd-4379-8dba-ce3c6fb0d86e))
  (fp_line (start 0.465 -0.795) (end -0.875 0.545) (layer "Dwgs.User") (width 0.05) (tstamp e887dff6-7fd3-4c95-b272-7b06b1b77c90))
  (fp_line (start 2.05 -2.05) (end 2.05 2.05) (layer "F.CrtYd") (width 0.05) (tstamp 86669531-b4e3-442d-9cdc-2b4f9dc7a0cf))
  (fp_line (start -2.05 2.05) (end -2.05 -2.05) (layer "F.CrtYd") (width 0.05) (tstamp a671ca5d-c142-41f6-92b7-d2bf72d5dded))
  (fp_line (start -2.05 -2.05) (end 2.05 -2.05) (layer "F.CrtYd") (width 0.05) (tstamp b203d464-9529-4bd0-ae11-4c84c5cf5d2e))
  (fp_line (start 2.05 2.05) (end -2.05 2.05) (layer "F.CrtYd") (width 0.05) (tstamp c42a2050-ba20-4f56-adae-d347a1465b30))
  (fp_line (start 1.5 1.5) (end -1.5 1.5) (layer "F.Fab") (width 0.15) (tstamp 4a9e6c57-ddeb-4fbd-9d4c-47340498b214))
  (fp_line (start 1.5 -1.5) (end 1.5 1.5) (layer "F.Fab") (width 0.15) (tstamp 55290d4e-c257-4c2b-83a4-19ea6b41da89))
  (fp_line (start -0.5 -1.5) (end 1.5 -1.5) (layer "F.Fab") (width 0.15) (tstamp 5757ee4c-bd24-40a2-a2f4-e87c8093c337))
  (fp_line (start -1.5 1.5) (end -1.5 -0.5) (layer "F.Fab") (width 0.15) (tstamp 6dff7502-9c19-4d08-ae67-11417b83191e))
  (fp_line (start -1.5 -0.5) (end -0.5 -1.5) (layer "F.Fab") (width 0.15) (tstamp a93c7645-cd26-40a1-9a27-8165f26e71cd))
  (pad "" smd roundrect (at 0 0) (size 1.75 1.59) (layers "F.Mask") (roundrect_rratio 0.15) (tstamp ca64b08e-3b47-4a82-bd29-c78ad59714d3))
  (pad "1" smd roundrect (at -1.5 -1) (size 0.55 0.2) (layers "F.Cu" "F.Paste" "F.Mask") (roundrect_rratio 0.25) (tstamp 3b0a573c-ab1e-4066-92b3-4bf6f0a27144))
  (pad "2" smd roundrect (at -1.5 -0.6) (size 0.55 0.2) (layers "F.Cu" "F.Paste" "F.Mask") (roundrect_rratio 0.25) (tstamp f3ecf627-c69b-4e7f-9068-728da6bef754))
  (pad "3" smd roundrect (at -1.5 -0.2) (size 0.55 0.2) (layers "F.Cu" "F.Paste" "F.Mask") (roundrect_rratio 0.25) (tstamp 3d396190-1f83-4145-9041-2ed5109f5101))
  (pad "4" smd roundrect (at -1.5 0.2) (size 0.55 0.2) (layers "F.Cu" "F.Paste" "F.Mask") (roundrect_rratio 0.25) (tstamp 7b4514ff-3385-4495-905f-d2260172942b))
  (pad "5" smd roundrect (at -1.5 0.6) (size 0.55 0.2) (layers "F.Cu" "F.Paste" "F.Mask") (roundrect_rratio 0.25) (tstamp a56d4733-cad2-4864-a85b-1534ca97950c))
  (pad "6" smd roundrect (at -1.5 1) (size 0.55 0.2) (layers "F.Cu" "F.Paste" "F.Mask") (roundrect_rratio 0.25) (tstamp a252bf31-cb48-4566-af16-fc4f8c1cda03))
  (pad "7" smd roundrect (at -1 1.5 90) (size 0.55 0.2) (layers "F.Cu" "F.Paste" "F.Mask") (roundrect_rratio 0.25) (tstamp 0ed9ad97-1195-4ec3-9135-bfc7479fee48))
  (pad "8" smd roundrect (at -0.6 1.5 90) (size 0.55 0.2) (layers "F.Cu" "F.Paste" "F.Mask") (roundrect_rratio 0.25) (tstamp f62a2fca-c4ad-4898-8f13-2ebba7d1264b))
  (pad "9" smd roundrect (at -0.2 1.5 90) (size 0.55 0.2) (layers "F.Cu" "F.Paste" "F.Mask") (roundrect_rratio 0.25) (tstamp c18af40e-0182-46df-b6d5-b161c824214d))
  (pad "10" smd roundrect (at 0.2 1.5 90) (size 0.55 0.2) (layers "F.Cu" "F.Paste" "F.Mask") (roundrect_rratio 0.25) (tstamp 55f9ee67-f4c0-4250-b086-7a84afd130ee))
  (pad "11" smd roundrect (at 0.6 1.5 90) (size 0.55 0.2) (layers "F.Cu" "F.Paste" "F.Mask") (roundrect_rratio 0.25) (tstamp 5aa920d0-04f4-4e75-bb5b-956358c8a7d4))
  (pad "12" smd roundrect (at 1 1.5 90) (size 0.55 0.2) (layers "F.Cu" "F.Paste" "F.Mask") (roundrect_rratio 0.25) (tstamp 2ca3adb3-90c3-4cbb-b9a5-65db8a434d7c))
  (pad "13" smd roundrect (at 1.5 1) (size 0.55 0.2) (layers "F.Cu" "F.Paste" "F.Mask") (roundrect_rratio 0.25) (tstamp 43251cef-2488-4747-b2f8-4b5a17519107))
  (pad "14" smd roundrect (at 1.5 0.6) (size 0.55 0.2) (layers "F.Cu" "F.Paste" "F.Mask") (roundrect_rratio 0.25) (tstamp 9b835583-27af-420e-9063-906c8581d183))
  (pad "15" smd roundrect (at 1.5 0.2) (size 0.55 0.2) (layers "F.Cu" "F.Paste" "F.Mask") (roundrect_rratio 0.25) (tstamp cd663028-e2b6-4f7a-a5b2-fce5f561b7c1))
  (pad "16" smd roundrect (at 1.5 -0.2) (size 0.55 0.2) (layers "F.Cu" "F.Paste" "F.Mask") (roundrect_rratio 0.25) (tstamp 4a03b730-4188-4322-9f0d-59946e096795))
  (pad "17" smd roundrect (at 1.5 -0.6) (size 0.55 0.2) (layers "F.Cu" "F.Paste" "F.Mask") (roundrect_rratio 0.25) (tstamp 3d69a025-971b-4dad-a65f-e29c39571f73))
  (pad "18" smd roundrect (at 1.5 -1) (size 0.55 0.2) (layers "F.Cu" "F.Paste" "F.Mask") (roundrect_rratio 0.25) (tstamp c4bc5364-ff9a-4b8f-abe8-cefe60e9916b))
  (pad "19" smd roundrect (at 1 -1.5 90) (size 0.55 0.2) (layers "F.Cu" "F.Paste" "F.Mask") (roundrect_rratio 0.25) (tstamp 48a2ddc1-a185-4b32-a038-8745eb2f7ffd))
  (pad "20" smd roundrect (at 0.6 -1.5 90) (size 0.55 0.2) (layers "F.Cu" "F.Paste" "F.Mask") (roundrect_rratio 0.25) (tstamp 111ede74-7852-46c1-9112-3ed13bfd58df))
  (pad "21" smd roundrect (at 0.2 -1.5 90) (size 0.55 0.2) (layers "F.Cu" "F.Paste" "F.Mask") (roundrect_rratio 0.25) (tstamp 4ab0e4eb-f021-4d3e-9ad3-1b5bd2c50f4a))
  (pad "22" smd roundrect (at -0.2 -1.5 90) (size 0.55 0.2) (layers "F.Cu" "F.Paste" "F.Mask") (roundrect_rratio 0.25) (tstamp 96bdfabe-e420-4ffb-89a3-8ef7a7b10fcc))
  (pad "23" smd roundrect (at -0.6 -1.5 90) (size 0.55 0.2) (layers "F.Cu" "F.Paste" "F.Mask") (roundrect_rratio 0.25) (tstamp 9228985a-d635-4a2c-86a0-e957d4f9a5c1))
  (pad "24" smd roundrect (at -1 -1.5 90) (size 0.55 0.2) (layers "F.Cu" "F.Paste" "F.Mask") (roundrect_rratio 0.25) (tstamp e6dfef24-b0d4-4faa-8363-1363d79f13a3))
  (model "${KICAD6_3DMODEL_DIR}/Package_DFN_QFN.3dshapes/QFN-24_3x3mm_P0.4mm_EP1.7x1.54mm.wrl"
    (offset (xyz 0 0 0))
    (scale (xyz 1 1 1))
    (rotate (xyz 0 0 0))
  )
)
