(footprint "Converter_DCDC_Murata_NXExSxxxxMC_SMD" (version 20211014) (generator pcbnew)
  (layer "F.Cu")
  (tedit 5F5A9285)
  (descr "Isolated 1W or 2W Single Output SM DC/DC Converters https://www.murata.com/products/productdata/8807031865374/kdc-nxe1.pdf#page=8 https://www.murata.com/products/productdata/8807031898142/kdc-nxe2.pdf#page=9")
  (tags "Isolated 1W or 2W Single Output SM DC/DC Converters")
  (attr smd)
  (fp_text reference "REF**" (at -4 -9.27) (layer "F.SilkS")
    (effects (font (size 1 1) (thickness 0.15)))
    (tstamp c87d6db6-965b-465c-88e0-47ff0743ece3)
  )
  (fp_text value "Converter_DCDC_Murata_NXExSxxxxMC_SMD" (at 0 7.15) (layer "F.Fab")
    (effects (font (size 1 1) (thickness 0.15)))
    (tstamp 3482587e-4c4c-4dce-81dd-8df9240fa78e)
  )
  (fp_text user "Keepout" (at 0.23368 -0.97282) (layer "Cmts.User")
    (effects (font (size 1 1) (thickness 0.15)))
    (tstamp 21727af5-5b03-47b8-98ec-fc8831981765)
  )
  (fp_text user "isolation barrier" (at -0.01 0.78) (layer "Cmts.User")
    (effects (font (size 1 1) (thickness 0.15)))
    (tstamp ef7cf054-ce05-4cce-beb2-3808bd91bacf)
  )
  (fp_text user "${REFERENCE}" (at 0.01016 -2.76606) (layer "F.Fab")
    (effects (font (size 1 1) (thickness 0.15)))
    (tstamp a9074e22-7b95-4529-b55e-0ad95ba25db4)
  )
  (fp_line (start -5.325 5.2) (end -5.325 3.32) (layer "F.SilkS") (width 0.15) (tstamp 3148c240-da99-4158-8ee1-f690e1945df6))
  (fp_line (start 5.325 -4.3) (end 5.325 1.76) (layer "F.SilkS") (width 0.15) (tstamp 436d1877-c286-48df-a2ad-6694ad1cc7e3))
  (fp_line (start 5.325 3.32) (end 5.325 5.2) (layer "F.SilkS") (width 0.15) (tstamp 436e0c96-678d-49de-bc5a-cd11330a0102))
  (fp_line (start -4.577 -7.99) (end -5.577 -7.99) (layer "F.SilkS") (width 0.12) (tstamp 51bbc023-dc2d-42b5-8989-1dab40cce6f3))
  (fp_line (start -5.325 -5.86) (end -5.325 -7.74) (layer "F.SilkS") (width 0.15) (tstamp 711f166f-73bd-46c2-8185-544655ef0df9))
  (fp_line (start -5.325 1.76) (end -5.325 -1.76) (layer "F.SilkS") (width 0.15) (tstamp b15a41a7-eec4-4353-9e4f-57f21961c64c))
  (fp_line (start 5.325 5.2) (end -5.325 5.2) (layer "F.SilkS") (width 0.15) (tstamp b4658b13-ce1c-454e-8131-608e6c5ee382))
  (fp_line (start 5.325 -7.74) (end 5.325 -5.86) (layer "F.SilkS") (width 0.15) (tstamp c987938a-ca95-4fc7-8c20-5f1d8b77556e))
  (fp_line (start -5.325 -3.32) (end -5.325 -4.3) (layer "F.SilkS") (width 0.15) (tstamp cbef5878-8619-425e-806a-7dae418e4304))
  (fp_line (start -5.577 -7.99) (end -5.577 -6.99) (layer "F.SilkS") (width 0.12) (tstamp d16b19e4-e5c5-49cf-819b-06a75e8bd970))
  (fp_line (start -5.325 -7.74) (end 5.325 -7.74) (layer "F.SilkS") (width 0.15) (tstamp e1ae25f9-1be9-4d86-859e-3c9a2b539b1a))
  (fp_line (start 2.25 1.93) (end 3.9 -1.92) (layer "Dwgs.User") (width 0.12) (tstamp 00ad1bd9-aafb-4e2e-8ab8-5340547699b0))
  (fp_line (start 0.25 1.93) (end 1.9 -1.92) (layer "Dwgs.User") (width 0.12) (tstamp 0b4bf216-856f-4aad-87b8-094d85179830))
  (fp_line (start 6.1 1.93) (end -6.1 1.93) (layer "Dwgs.User") (width 0.12) (tstamp 0c0bff80-3428-4c62-be95-a9d694912811))
  (fp_line (start 5.25 1.93) (end 6.1 -0.067413) (layer "Dwgs.User") (width 0.12) (tstamp 0d1c91c1-9f7a-4f01-9bfe-5dd6a3268891))
  (fp_line (start -3.75 1.93) (end -2.1 -1.92) (layer "Dwgs.User") (width 0.12) (tstamp 2474ebed-28bb-4b35-8dd6-9a4794426d6f))
  (fp_line (start 4.25 1.93) (end 5.9 -1.92) (layer "Dwgs.User") (width 0.12) (tstamp 3829d44c-199a-479f-864b-a79735705678))
  (fp_line (start -5.75 1.93) (end -4.1 -1.92) (layer "Dwgs.User") (width 0.12) (tstamp 3fcb2d59-331c-4435-91bf-6f81c04ddae7))
  (fp_line (start -0.75 1.93) (end 0.9 -1.92) (layer "Dwgs.User") (width 0.12) (tstamp 643bb801-7d65-4d42-98d9-1d932a721a16))
  (fp_line (start -6.1 1.93) (end -6.1 -1.92) (layer "Dwgs.User") (width 0.12) (tstamp 6e510d38-1da5-41cf-bca7-cf392a0b54c6))
  (fp_line (start 3.25 1.93) (end 4.9 -1.92) (layer "Dwgs.User") (width 0.12) (tstamp 79a0682a-d514-4ec2-9dbb-d0a551de6e97))
  (fp_line (start -4.75 1.93) (end -3.1 -1.92) (layer "Dwgs.User") (width 0.12) (tstamp 939f1250-9b8a-445c-a466-6b2e0bba3de0))
  (fp_line (start -2.75 1.93) (end -1.1 -1.92) (layer "Dwgs.User") (width 0.12) (tstamp bd813a6c-7ce7-4b7d-933d-82c7d92e0deb))
  (fp_line (start -6.1 0.427414) (end -5.1 -1.92) (layer "Dwgs.User") (width 0.12) (tstamp c0068f5d-087f-4e66-9c3c-b833d5494f05))
  (fp_line (start -6.1 -1.92) (end 6.1 -1.92) (layer "Dwgs.User") (width 0.12) (tstamp ca602783-f916-4531-b7c9-8e803698934c))
  (fp_line (start 6.1 -1.92) (end 6.1 1.93) (layer "Dwgs.User") (width 0.12) (tstamp dbddd20f-9700-4205-a0e8-c9d98e31adec))
  (fp_line (start 1.25 1.93) (end 2.9 -1.92) (layer "Dwgs.User") (width 0.12) (tstamp e48923db-fdb7-400a-987c-3bb88431e8e8))
  (fp_line (start -1.75 1.93) (end -0.1 -1.92) (layer "Dwgs.User") (width 0.12) (tstamp f7d67955-791f-4245-884c-dc13984c0448))
  (fp_line (start 6.1 5.33) (end -6.1 5.33) (layer "F.CrtYd") (width 0.05) (tstamp a746d22e-6407-4d2d-9282-964606af734b))
  (fp_line (start -6.1 5.33) (end -6.1 -7.87) (layer "F.CrtYd") (width 0.05) (tstamp b8601a80-ea58-4264-b59c-f0d99f3e169e))
  (fp_line (start 6.1 -7.87) (end -6.1 -7.87) (layer "F.CrtYd") (width 0.05) (tstamp caf71c4f-0196-4e7c-929f-ed98e13d6dc4))
  (fp_line (start 6.1 -7.87) (end 6.1 5.33) (layer "F.CrtYd") (width 0.05) (tstamp dfedc740-d4b4-4d25-88d1-6050917e71b4))
  (fp_line (start -5.207 5.08) (end -5.207 -6.35) (layer "F.Fab") (width 0.1) (tstamp 264a0c74-8246-492f-b2fe-f2b716f76be8))
  (fp_line (start -3.937 -7.62) (end 5.207 -7.62) (layer "F.Fab") (width 0.1) (tstamp c96ab699-d25b-4ec8-b4e1-3c1536ded568))
  (fp_line (start 5.207 -7.62) (end 5.207 5.08) (layer "F.Fab") (width 0.1) (tstamp ead2882c-7c59-426b-b35f-b1ce3a63cd41))
  (fp_line (start -3.937 -7.62) (end -5.207 -6.35) (layer "F.Fab") (width 0.1) (tstamp f2ff1ed6-9344-4d71-b3c2-f965c2ee2790))
  (fp_line (start 5.207 5.08) (end -5.207 5.08) (layer "F.Fab") (width 0.1) (tstamp fb8b5e3e-0cff-4d10-afe5-e1c44ae6dd5c))
  (pad "1" smd rect (at -4.7 -5.08) (size 2.3 1) (layers "F.Cu" "F.Paste" "F.Mask") (tstamp 1eb07d68-333e-4609-a983-dd6ef0d2af14))
  (pad "3" smd rect (at -4.7 -2.54) (size 2.3 1) (layers "F.Cu" "F.Paste" "F.Mask") (tstamp 6380a318-24f2-4e5e-8133-c61d42aec8ba))
  (pad "7" smd rect (at -4.7 2.54) (size 2.3 1) (layers "F.Cu" "F.Paste" "F.Mask") (tstamp fb3ee211-f6df-4058-9b59-970016b1dcee))
  (pad "8" smd rect (at 4.7 2.54) (size 2.3 1) (layers "F.Cu" "F.Paste" "F.Mask") (tstamp 2e2d4497-b713-4090-a44b-e18b9878fdd6))
  (pad "14" smd rect (at 4.7 -5.08) (size 2.3 1) (layers "F.Cu" "F.Paste" "F.Mask") (tstamp dec92a64-c5e8-47e0-b33e-9e8f4ff73727))
  (model "${KICAD6_3DMODEL_DIR}/Converter_DCDC.3dshapes/Converter_DCDC_Murata_NXE2SxxxxMC_SMD.wrl"
    (offset (xyz 0 0 0))
    (scale (xyz 1 1 1))
    (rotate (xyz 0 0 0))
  )
)
